%YAML 1.1
%TAG !u! tag:unity3d.com,2011:
--- !u!114 &11400000
MonoBehaviour:
  m_ObjectHideFlags: 0
  m_CorrespondingSourceObject: {fileID: 0}
  m_PrefabInstance: {fileID: 0}
  m_PrefabAsset: {fileID: 0}
  m_GameObject: {fileID: 0}
  m_Enabled: 1
  m_EditorHideFlags: 0
  m_Script: {fileID: 11500000, guid: ee2f27116d1540040a727081b1f09e36, type: 3}
  m_Name: Necrom Helm
  m_EditorClassIdentifier: 
  name: Necrom Helm
  description: HP+10, Def+5
  type: 1
  icon: {fileID: 21300000, guid: 5c2c38ca1ab5a35408752a1682043427, type: 3}
  modelPrefab: {fileID: 0}
  isActive: 1
  disposable: 1
  equipSlot: 0
  hitPoint: 10
  weaponDef: 5
  isWeapon: 0
  isRanged: 0
  damage: 0
  range: 100
  fireRate: 5
  impactForce: 30
