%YAML 1.1
%TAG !u! tag:unity3d.com,2011:
--- !u!114 &11400000
MonoBehaviour:
  m_ObjectHideFlags: 0
  m_CorrespondingSourceObject: {fileID: 0}
  m_PrefabInstance: {fileID: 0}
  m_PrefabAsset: {fileID: 0}
  m_GameObject: {fileID: 0}
  m_Enabled: 1
  m_EditorHideFlags: 0
  m_Script: {fileID: 11500000, guid: c2744ca34bdf56f4a8afac98378b2a8c, type: 3}
  m_Name: Potion
  m_EditorClassIdentifier: 
  name: Potion
  description: Recover 50 HP
  type: 0
  icon: {fileID: 21300000, guid: 576acb6f5486deb47a7e4aff15a7814e, type: 3}
  modelPrefab: {fileID: 0}
  isActive: 1
  disposable: 1
  useSlot: 0
  heal: 50
  damage: 0
  hitPoint: 0
  weaponDef: 0
